# Exported from Fuse 1.3.0

newmtl PackedMaterial0
illum 4
Kd 1.00 1.00 1.00
Ka 0.00 0.00 0.00
Tf 1.00 1.00 1.00
Ni 1.00
Ks 1.00 1.00 1.00
map_Kd mujer_packed0_diffuse.png
bump mujer_packed0_normal.png
map_Ns mujer_packed0_gloss.png

